Project08/cpubench.vcd
$date
  Wed Dec  7 10:50:58 2022
$end
$version
  GHDL v0
$end
$timescale
  1 fs
$end
$scope module standard $end
$upscope $end
$scope module std_logic_1164 $end
$upscope $end
$scope module numeric_std $end
$upscope $end
$scope module std_logic_arith $end
$upscope $end
$scope module std_logic_unsigned $end
$upscope $end
$scope module textio $end
$upscope $end
$scope module altera_common_conversion $end
$upscope $end
$scope module altera_device_families $end
$upscope $end
$scope module cpubench $end
$var reg 8 ! iport[7:0] $end
$var reg 16 " oport[15:0] $end
$var reg 8 # pc[7:0] $end
$var reg 16 $ ir[15:0] $end
$var reg 16 % ra[15:0] $end
$var reg 16 & rb[15:0] $end
$var reg 16 ' rc[15:0] $end
$var reg 16 ( rd[15:0] $end
$var reg 16 ) re[15:0] $end
$var reg 1 * clk $end
$var reg 1 + reset $end
$scope module cpuinstance $end
$var reg 1 , clk $end
$var reg 1 - reset $end
$var reg 8 . pcview[7:0] $end
$var reg 16 / irview[15:0] $end
$var reg 16 0 raview[15:0] $end
$var reg 16 1 rbview[15:0] $end
$var reg 16 2 rcview[15:0] $end
$var reg 16 3 rdview[15:0] $end
$var reg 16 4 review[15:0] $end
$var reg 8 5 iport[7:0] $end
$var reg 16 6 oport[15:0] $end
$comment state is not handled $end
$var reg 16 7 ra[15:0] $end
$var reg 16 8 rb[15:0] $end
$var reg 16 9 rc[15:0] $end
$var reg 16 : rd[15:0] $end
$var reg 16 ; re[15:0] $end
$var reg 16 < sp[15:0] $end
$var reg 16 = ir[15:0] $end
$var reg 16 > mbr[15:0] $end
$var reg 4 ? cr[3:0] $end
$var reg 8 @ pc[7:0] $end
$var reg 8 A mar[7:0] $end
$var reg 16 B srca[15:0] $end
$var reg 16 C srcb[15:0] $end
$var reg 16 D alu_output[15:0] $end
$var reg 3 E op[2:0] $end
$var reg 4 F alu_cr[3:0] $end
$var reg 16 G ram_output[15:0] $end
$var reg 1 H ram_we $end
$var reg 16 I rom_output[15:0] $end
$var reg 16 J outreg[15:0] $end
$var reg 3 K waitc[2:0] $end
$scope module alu1 $end
$var reg 16 L srca[15:0] $end
$var reg 16 M srcb[15:0] $end
$var reg 3 N op[2:0] $end
$var reg 4 O cr[3:0] $end
$var reg 16 P dest[15:0] $end
$var reg 17 Q tdest[16:0] $end
$upscope $end
$scope module dataram1 $end
$var reg 8 R address[7:0] $end
$var reg 1 S clock $end
$var reg 16 T data[15:0] $end
$var reg 1 U wren $end
$var reg 16 V q[15:0] $end
$var reg 16 W sub_wire0[15:0] $end
$scope module altsyncram_component $end
$var reg 1 X wren_a $end
$var reg 1 Y wren_b $end
$var reg 1 Z rden_a $end
$var reg 1 [ rden_b $end
$var reg 16 \ data_a[15:0] $end
$var reg 1 ] data_b[0:0] $end
$var reg 8 ^ address_a[7:0] $end
$var reg 1 _ address_b[0:0] $end
$var reg 1 ` clock0 $end
$var reg 1 a clock1 $end
$var reg 1 b clocken0 $end
$var reg 1 c clocken1 $end
$var reg 1 d clocken2 $end
$var reg 1 e clocken3 $end
$var reg 1 f aclr0 $end
$var reg 1 g aclr1 $end
$var reg 1 h addressstall_a $end
$var reg 1 i addressstall_b $end
$var reg 1 j byteena_a[0:0] $end
$var reg 1 k byteena_b[0:0] $end
$var reg 16 l q_a[15:0] $end
$var reg 1 m q_b[0:0] $end
$var reg 3 n eccstatus[2:0] $end
$var reg 16 o i_data_reg_a[15:0] $end
$var reg 1 p i_data_reg_b[0:0] $end
$var reg 16 q i_q_reg_a[15:0] $end
$var reg 16 r i_q_tmp_a[15:0] $end
$var reg 16 s i_q_tmp2_a[15:0] $end
$var reg 16 t i_q_tmp_wren_a[15:0] $end
$var reg 16 u i_q_tmp2_wren_a[15:0] $end
$var reg 1 v i_q_tmp_wren_b[0:0] $end
$var reg 1 w i_q_reg_b[0:0] $end
$var reg 1 x i_q_tmp_b[0:0] $end
$var reg 1 y i_q_tmp2_b[0:0] $end
$var reg 1 z i_q_output_latch[0:0] $end
$var reg 1 { i_q_ecc_reg_b[0:0] $end
$var reg 1 | i_q_ecc_tmp_b[0:0] $end
$var reg 16 } i_current_written_data_a[15:0] $end
$var reg 16 !" i_original_data_a[15:0] $end
$var reg 1 "" i_original_data_b[0:0] $end
$var reg 16 #" i_byteena_mask_reg_a_x[15:0] $end
$var reg 1 $" i_byteena_mask_reg_b_x[0:0] $end
$var reg 16 %" i_byteena_mask_reg_a[15:0] $end
$var reg 1 &" i_byteena_mask_reg_b[0:0] $end
$var reg 16 '" i_byteena_mask_reg_a_out[15:0] $end
$var reg 1 (" i_byteena_mask_reg_b_out[0:0] $end
$var reg 16 )" i_byteena_mask_reg_a_out_b[15:0] $end
$var reg 1 *" i_byteena_mask_reg_b_out_a[0:0] $end
$var reg 8 +" i_address_reg_a[7:0] $end
$var reg 1 ," i_address_reg_b[0:0] $end
$var reg 1 -" i_wren_reg_a $end
$var reg 1 ." i_wren_reg_b $end
$var reg 1 /" i_rden_reg_a $end
$var reg 1 0" i_rden_reg_b $end
$var reg 1 1" i_read_flag_a $end
$var reg 1 2" i_read_flag_b $end
$var reg 1 3" i_reread_flag_a $end
$var reg 1 4" i_reread_flag_b $end
$var reg 1 5" i_reread_flag2_a $end
$var reg 1 6" i_reread_flag2_b $end
$var reg 1 7" i_write_flag_a $end
$var reg 1 8" i_write_flag_b $end
$var reg 1 9" i_nmram_write_a $end
$var reg 1 :" i_nmram_write_b $end
$var reg 1 ;" i_indata_aclr_a $end
$var reg 1 <" i_address_aclr_a $end
$var reg 1 =" i_wrcontrol_aclr_a $end
$var reg 1 >" i_indata_aclr_b $end
$var reg 1 ?" i_address_aclr_b $end
$var reg 1 @" i_wrcontrol_aclr_b $end
$var reg 1 A" i_outdata_aclr_a $end
$var reg 1 B" i_outdata_aclr_b $end
$var reg 1 C" i_rdcontrol_aclr_b $end
$var reg 1 D" i_byteena_aclr_a $end
$var reg 1 E" i_byteena_aclr_b $end
$var reg 1 F" good_to_go_a $end
$var reg 1 G" good_to_go_b $end
$var reg 1 H" i_core_clocken_a $end
$var reg 1 I" i_core_clocken_b $end
$var reg 1 J" i_core_clocken_b0 $end
$var reg 1 K" i_core_clocken_b1 $end
$var reg 1 L" i_inclocken0 $end
$var reg 1 M" i_input_clocken_b $end
$var reg 1 N" i_outdata_clken_b $end
$var reg 1 O" i_outdata_clken_a $end
$var reg 1 P" i_outlatch_clken_a $end
$var reg 1 Q" i_outlatch_clken_b $end
$var reg 1 R" i_core_clocken_a_reg $end
$var reg 1 S" i_core_clocken_b_reg $end
$var reg 1 T" default_val $end
$var reg 16 U" i_data_zero_a[15:0] $end
$var reg 1 V" i_data_zero_b[0:0] $end
$var reg 16 W" i_data_ones_a[15:0] $end
$var reg 1 X" i_data_ones_b[0:0] $end
$var reg 1 Y" same_clock_pulse0 $end
$var reg 1 Z" same_clock_pulse1 $end
$var reg 1 [" i_force_reread_a $end
$var reg 1 \" i_force_reread_a1 $end
$var reg 1 ]" i_force_reread_b $end
$var reg 1 ^" i_force_reread_b1 $end
$var reg 1 _" i_force_reread_signal_a $end
$var reg 1 `" i_force_reread_signal_b $end
$var reg 1 a" i_good_to_write_a $end
$var reg 1 b" i_good_to_write_b $end
$scope module ifg02 $end
$upscope $end
$scope module ifg03a $end
$upscope $end
$scope module ifg15 $end
$upscope $end
$scope module ifg172a $end
$upscope $end
$scope module ifg50a $end
$upscope $end
$scope module ifg51a $end
$upscope $end
$scope module ifg52b $end
$upscope $end
$scope module ifclr01 $end
$upscope $end
$scope module ifg52 $end
$upscope $end
$scope module ifg57 $end
$upscope $end
$upscope $end
$upscope $end
$scope module programrom1 $end
$var reg 8 c" address[7:0] $end
$var reg 1 d" clock $end
$var reg 16 e" q[15:0] $end
$var reg 16 f" sub_wire0[15:0] $end
$scope module altsyncram_component $end
$var reg 1 g" wren_a $end
$var reg 1 h" wren_b $end
$var reg 1 i" rden_a $end
$var reg 1 j" rden_b $end
$var reg 16 k" data_a[15:0] $end
$var reg 1 l" data_b[0:0] $end
$var reg 8 m" address_a[7:0] $end
$var reg 1 n" address_b[0:0] $end
$var reg 1 o" clock0 $end
$var reg 1 p" clock1 $end
$var reg 1 q" clocken0 $end
$var reg 1 r" clocken1 $end
$var reg 1 s" clocken2 $end
$var reg 1 t" clocken3 $end
$var reg 1 u" aclr0 $end
$var reg 1 v" aclr1 $end
$var reg 1 w" addressstall_a $end
$var reg 1 x" addressstall_b $end
$var reg 1 y" byteena_a[0:0] $end
$var reg 1 z" byteena_b[0:0] $end
$var reg 16 {" q_a[15:0] $end
$var reg 1 |" q_b[0:0] $end
$var reg 3 }" eccstatus[2:0] $end
$var reg 16 !# i_data_reg_a[15:0] $end
$var reg 1 "# i_data_reg_b[0:0] $end
$var reg 16 ## i_q_reg_a[15:0] $end
$var reg 16 $# i_q_tmp_a[15:0] $end
$var reg 16 %# i_q_tmp2_a[15:0] $end
$var reg 16 &# i_q_tmp_wren_a[15:0] $end
$var reg 16 '# i_q_tmp2_wren_a[15:0] $end
$var reg 1 (# i_q_tmp_wren_b[0:0] $end
$var reg 1 )# i_q_reg_b[0:0] $end
$var reg 1 *# i_q_tmp_b[0:0] $end
$var reg 1 +# i_q_tmp2_b[0:0] $end
$var reg 1 ,# i_q_output_latch[0:0] $end
$var reg 1 -# i_q_ecc_reg_b[0:0] $end
$var reg 1 .# i_q_ecc_tmp_b[0:0] $end
$var reg 16 /# i_current_written_data_a[15:0] $end
$var reg 16 0# i_original_data_a[15:0] $end
$var reg 1 1# i_original_data_b[0:0] $end
$var reg 16 2# i_byteena_mask_reg_a_x[15:0] $end
$var reg 1 3# i_byteena_mask_reg_b_x[0:0] $end
$var reg 16 4# i_byteena_mask_reg_a[15:0] $end
$var reg 1 5# i_byteena_mask_reg_b[0:0] $end
$var reg 16 6# i_byteena_mask_reg_a_out[15:0] $end
$var reg 1 7# i_byteena_mask_reg_b_out[0:0] $end
$var reg 16 8# i_byteena_mask_reg_a_out_b[15:0] $end
$var reg 1 9# i_byteena_mask_reg_b_out_a[0:0] $end
$var reg 8 :# i_address_reg_a[7:0] $end
$var reg 1 ;# i_address_reg_b[0:0] $end
$var reg 1 <# i_wren_reg_a $end
$var reg 1 =# i_wren_reg_b $end
$var reg 1 ># i_rden_reg_a $end
$var reg 1 ?# i_rden_reg_b $end
$var reg 1 @# i_read_flag_a $end
$var reg 1 A# i_read_flag_b $end
$var reg 1 B# i_reread_flag_a $end
$var reg 1 C# i_reread_flag_b $end
$var reg 1 D# i_reread_flag2_a $end
$var reg 1 E# i_reread_flag2_b $end
$var reg 1 F# i_write_flag_a $end
$var reg 1 G# i_write_flag_b $end
$var reg 1 H# i_nmram_write_a $end
$var reg 1 I# i_nmram_write_b $end
$var reg 1 J# i_indata_aclr_a $end
$var reg 1 K# i_address_aclr_a $end
$var reg 1 L# i_wrcontrol_aclr_a $end
$var reg 1 M# i_indata_aclr_b $end
$var reg 1 N# i_address_aclr_b $end
$var reg 1 O# i_wrcontrol_aclr_b $end
$var reg 1 P# i_outdata_aclr_a $end
$var reg 1 Q# i_outdata_aclr_b $end
$var reg 1 R# i_rdcontrol_aclr_b $end
$var reg 1 S# i_byteena_aclr_a $end
$var reg 1 T# i_byteena_aclr_b $end
$var reg 1 U# good_to_go_a $end
$var reg 1 V# good_to_go_b $end
$var reg 1 W# i_core_clocken_a $end
$var reg 1 X# i_core_clocken_b $end
$var reg 1 Y# i_core_clocken_b0 $end
$var reg 1 Z# i_core_clocken_b1 $end
$var reg 1 [# i_inclocken0 $end
$var reg 1 \# i_input_clocken_b $end
$var reg 1 ]# i_outdata_clken_b $end
$var reg 1 ^# i_outdata_clken_a $end
$var reg 1 _# i_outlatch_clken_a $end
$var reg 1 `# i_outlatch_clken_b $end
$var reg 1 a# i_core_clocken_a_reg $end
$var reg 1 b# i_core_clocken_b_reg $end
$var reg 1 c# default_val $end
$var reg 16 d# i_data_zero_a[15:0] $end
$var reg 1 e# i_data_zero_b[0:0] $end
$var reg 16 f# i_data_ones_a[15:0] $end
$var reg 1 g# i_data_ones_b[0:0] $end
$var reg 1 h# same_clock_pulse0 $end
$var reg 1 i# same_clock_pulse1 $end
$var reg 1 j# i_force_reread_a $end
$var reg 1 k# i_force_reread_a1 $end
$var reg 1 l# i_force_reread_b $end
$var reg 1 m# i_force_reread_b1 $end
$var reg 1 n# i_force_reread_signal_a $end
$var reg 1 o# i_force_reread_signal_b $end
$var reg 1 p# i_good_to_write_a $end
$var reg 1 q# i_good_to_write_b $end
$scope module ifg02 $end
$upscope $end
$scope module ifg03a $end
$upscope $end
$scope module ifg15 $end
$upscope $end
$scope module ifg172a $end
$upscope $end
$scope module ifg50a $end
$upscope $end
$scope module ifg51a $end
$upscope $end
$scope module ifg52b $end
$upscope $end
$scope module ifclr01 $end
$upscope $end
$scope module ifg52 $end
$upscope $end
$scope module ifg57 $end
$upscope $end
$upscope $end
$upscope $end
$upscope $end
$upscope $end
$enddefinitions $end
#0
b00000000 !
b0000000000000000 "
b00000000 #
b0000000000000000 $
b0000000000000000 %
b0000000000000000 &
b0000000000000000 '
b0000000000000000 (
b0000000000000000 )
0*
0+
0,
0-
b00000000 .
b0000000000000000 /
b0000000000000000 0
b0000000000000000 1
b0000000000000000 2
b0000000000000000 3
b0000000000000000 4
b00000000 5
b0000000000000000 6
b0000000000000000 7
b0000000000000000 8
b0000000000000000 9
b0000000000000000 :
b0000000000000000 ;
b0000000000000000 <
b0000000000000000 =
b0000000000000000 >
b0000 ?
b00000000 @
b00000000 A
bUUUUUUUUUUUUUUUU B
bUUUUUUUUUUUUUUUU C
bUUUUUUUUUUUUUUUU D
bUUU E
bUU00 F
b0000000000000000 G
UH
b0000000000000000 I
b0000000000000000 J
b000 K
bUUUUUUUUUUUUUUUU L
bUUUUUUUUUUUUUUUU M
bUUU N
bUU00 O
bUUUUUUUUUUUUUUUU P
bUUUUUUUUUUUUUUUUU Q
b00000000 R
0S
b0000000000000000 T
UU
b0000000000000000 V
b0000000000000000 W
UX
0Y
1Z
1[
b0000000000000000 \
b1 ]
b00000000 ^
b1 _
0`
Za
1b
1c
1d
1e
0f
0g
0h
0i
b1 j
bZ k
b0000000000000000 l
b0 m
b000 n
b0000000000000000 o
b0 p
b0000000000000000 q
b0000000000000000 r
b0000000000000000 s
b0000000000000000 t
b0000000000000000 u
b0 v
b0 w
b0 x
b0 y
b0 z
b0 {
b0 |
b0000000000000000 }
b0000000000000000 !"
b0 ""
b0000000000000000 #"
b0 $"
b1111111111111111 %"
b1 &"
b1111111111111111 '"
b1 ("
b1111111111111111 )"
b1 *"
b00000000 +"
b0 ,"
0-"
0."
0/"
00"
01"
02"
03"
04"
05"
06"
07"
08"
09"
0:"
0;"
0<"
0="
0>"
0?"
0@"
0A"
0B"
0C"
0D"
0E"
0F"
0G"
1H"
1I"
1J"
1K"
1L"
1M"
0N"
1O"
1P"
1Q"
0R"
0S"
0T"
b0000000000000000 U"
b0 V"
b1111111111111111 W"
b1 X"
0Y"
0Z"
0["
0\"
0]"
0^"
0_"
0`"
1a"
1b"
b00000000 c"
0d"
b0000000000000000 e"
b0000000000000000 f"
0g"
0h"
1i"
1j"
b1111111111111111 k"
b1 l"
b00000000 m"
b1 n"
0o"
Zp"
1q"
1r"
1s"
1t"
0u"
0v"
0w"
0x"
b1 y"
bZ z"
b0000000000000000 {"
b0 |"
b000 }"
b0000000000000000 !#
b0 "#
b0000000000000000 ##
b0000000000000000 $#
b0000000000000000 %#
b0000000000000000 &#
b0000000000000000 '#
b0 (#
b0 )#
b0 *#
b0 +#
b0 ,#
b0 -#
b0 .#
b0000000000000000 /#
b0000000000000000 0#
b0 1#
b0000000000000000 2#
b0 3#
b1111111111111111 4#
b1 5#
b1111111111111111 6#
b1 7#
b1111111111111111 8#
b1 9#
b00000000 :#
b0 ;#
0<#
0=#
0>#
0?#
0@#
0A#
0B#
0C#
0D#
0E#
0F#
0G#
0H#
0I#
0J#
0K#
0L#
0M#
0N#
0O#
0P#
0Q#
0R#
0S#
0T#
0U#
0V#
1W#
1X#
1Y#
1Z#
1[#
1\#
0]#
1^#
1_#
1`#
0a#
0b#
0c#
b0000000000000000 d#
b0 e#
b1111111111111111 f#
b1 g#
0h#
0i#
0j#
0k#
0l#
0m#
0n#
0o#
1p#
1q#
#1000000
1*
1+
1,
1-
b001 K
1S
1`
b0000000000000001 r
b0000000000000001 s
b0000000000000000 '"
bXXXXXXXXXXXXXXXX )"
U-"
1/"
11"
19"
1F"
1R"
1d"
1o"
b1111111111111111 !#
b1111100000000000 $#
b1111100000000000 %#
b0000000000000000 6#
bXXXXXXXXXXXXXXXX 8#
1>#
1@#
1U#
1a#
#2000000
0*
0,
0S
0`
0d"
0o"
#3000000
1*
1,
b0000000000000001 G
b1111100000000000 I
b010 K
1S
b0000000000000001 V
b0000000000000001 W
1`
b0000000000000001 l
b0000000000000001 q
01"
1d"
b1111100000000000 e"
b1111100000000000 f"
1o"
b1111100000000000 {"
b1111100000000000 ##
0@#
#4000000
0*
0,
0S
0`
0d"
0o"
#5000000
1*
1,
b011 K
1S
1`
11"
1d"
1o"
1@#
#6000000
0*
0,
0S
0`
0d"
0o"
#7000000
1*
1,
b100 K
1S
1`
01"
1d"
1o"
0@#
#8000000
0*
0,
0S
0`
0d"
0o"
#9000000
1*
1,
b101 K
1S
1`
11"
1d"
1o"
1@#
#10000000
0*
0,
0S
0`
0d"
0o"
#11000000
1*
1,
b110 K
1S
1`
01"
1d"
1o"
0@#
#12000000
0*
0,
0S
0`
0d"
0o"
#13000000
1*
1,
b111 K
1S
1`
11"
1d"
1o"
1@#
#14000000
0*
0,
0S
0`
0d"
0o"
#15000000
1*
1,
1S
1`
01"
1d"
1o"
0@#
#16000000
0*
0,
0S
0`
0d"
0o"
#17000000
b00000001 #
b1111100000000000 $
1*
1,
b00000001 .
b1111100000000000 /
b1111100000000000 =
b00000001 @
1S
1`
11"
b00000001 c"
1d"
b00000001 m"
1o"
1@#
#18000000
0*
0,
0S
0`
0d"
0o"
#19000000
1*
1,
b0000000000000000 B
b0000000000000000 D
b111 E
b0001 F
b0000000000000000 L
b111 N
b0001 O
b0000000000000000 P
b00000000000000000 Q
1S
1`
01"
1d"
1o"
b1111100000001001 $#
b1111100000001001 %#
b00000001 :#
0@#
#20000000
0*
0,
0S
0`
0d"
0o"
#21000000
1*
1,
b1111100000001001 I
1S
1`
11"
1d"
b1111100000001001 e"
b1111100000001001 f"
1o"
b1111100000001001 {"
b1111100000001001 ##
1@#
#22000000
0*
0,
0S
0`
0d"
0o"
#23000000
1*
1,
b0001 ?
0H
1S
0U
0X
1`
01"
1d"
1o"
0@#
#24000000
0*
0,
0S
0`
0d"
0o"
#25000000
b00000010 #
b1111100000001001 $
1*
1,
b00000010 .
b1111100000001001 /
b1111100000001001 =
b00000010 @
1S
1`
0-"
11"
b00000010 c"
1d"
b00000010 m"
1o"
1@#
#26000000
0*
0,
0S
0`
0d"
0o"
#27000000
1*
1,
b0000000000000001 B
b0000000000000001 D
b0000 F
b0000000000000001 L
b0000 O
b0000000000000001 P
b00000000000000001 Q
1S
1`
01"
1d"
1o"
b1111100001010010 $#
b1111100001010010 %#
b00000010 :#
0@#
#28000000
0*
0,
0S
0`
0d"
0o"
#29000000
1*
1,
b1111100001010010 I
1S
1`
11"
1d"
b1111100001010010 e"
b1111100001010010 f"
1o"
b1111100001010010 {"
b1111100001010010 ##
1@#
#30000000
0*
0,
0S
0`
0d"
0o"
#31000000
b0000000000000001 &
1*
1,
b0000000000000001 1
b0000000000000001 8
b0000 ?
1S
1`
01"
1d"
1o"
0@#
#32000000
0*
0,
0S
0`
0d"
0o"
#33000000
b00000011 #
b1111100001010010 $
1*
1,
b00000011 .
b1111100001010010 /
b1111100001010010 =
b00000011 @
1S
1`
11"
b00000011 c"
1d"
b00000011 m"
1o"
1@#
#34000000
0*
0,
0S
0`
0d"
0o"
#35000000
1*
1,
b0000000000001010 B
b0000000000001010 D
b0000000000001010 L
b0000000000001010 P
b00000000000001010 Q
1S
1`
01"
1d"
1o"
b0011010000000101 $#
b0011010000000101 %#
b00000011 :#
0@#
#36000000
0*
0,
0S
0`
0d"
0o"
#37000000
1*
1,
b0011010000000101 I
1S
1`
11"
1d"
b0011010000000101 e"
b0011010000000101 f"
1o"
b0011010000000101 {"
b0011010000000101 ##
1@#
#38000000
0*
0,
0S
0`
0d"
0o"
#39000000
b0000000000001010 '
1*
1,
b0000000000001010 2
b0000000000001010 9
1S
1`
01"
1d"
1o"
0@#
#40000000
0*
0,
0S
0`
0d"
0o"
#41000000
b00000100 #
b0011010000000101 $
1*
1,
b00000100 .
b0011010000000101 /
b0011010000000101 =
b00000100 @
1S
1`
11"
b00000100 c"
1d"
b00000100 m"
1o"
1@#
#42000000
0*
0,
0S
0`
0d"
0o"
#43000000
b00000101 #
1*
1,
b00000101 .
b0000000000000001 <
b0000000000000100 >
b00000101 @
bUUUUUUUUUUUU1U1U D
b011 E
b0U00 F
b011 N
b0U00 O
bUUUUUUUUUUUU1U1U P
b0UUUUUUUUUUUU1U1U Q
1S
b0000000000000100 T
b0000000000000100 \
1`
01"
b00000101 c"
1d"
b00000101 m"
1o"
b0011110000000000 $#
b0011110000000000 %#
b00000100 :#
0@#
#44000000
0*
0,
0S
0`
0d"
0o"
#45000000
1*
1,
1H
b0011110000000000 I
1S
1U
1X
1`
b0000000000000100 o
11"
1d"
b0011110000000000 e"
b0011110000000000 f"
1o"
b0011110000000000 {"
b0011110000000000 ##
b1000000001000000 $#
b1000000001000000 %#
b00000101 :#
1@#
#46000000
0*
0,
0S
0`
0d"
0o"
#47000000
1*
1,
0H
b1000000001000000 I
1S
0U
0X
1`
b0000000000000100 r
b0000000000000100 s
b0000000000000100 }
b0000000000000001 !"
1-"
01"
17"
1d"
b1000000001000000 e"
b1000000001000000 f"
1o"
b1000000001000000 {"
b1000000001000000 ##
0@#
#48000000
0*
0,
0S
0`
0d"
0o"
#49000000
b00000110 #
b1000000001000000 $
1*
1,
b00000110 .
b1000000001000000 /
b1000000001000000 =
b00000110 @
b0000000000000100 G
1S
b0000000000000100 V
b0000000000000100 W
1`
b0000000000000100 l
b0000000000000100 q
b0000000000000100 !"
0-"
11"
07"
b00000110 c"
1d"
b00000110 m"
1o"
1@#
#50000000
0*
0,
0S
0`
0d"
0o"
#51000000
1*
1,
b0000000000000000 B
b0000000000000001 C
b0000000000000001 D
b000 E
b0000 F
b0000000000000000 L
b0000000000000001 M
b000 N
b0000 O
b0000000000000001 P
b00000000000000001 Q
1S
1`
01"
1d"
1o"
b1000011000000011 $#
b1000011000000011 %#
b00000110 :#
0@#
#52000000
0*
0,
0S
0`
0d"
0o"
#53000000
1*
1,
b1000011000000011 I
1S
1`
11"
1d"
b1000011000000011 e"
b1000011000000011 f"
1o"
b1000011000000011 {"
b1000011000000011 ##
1@#
#54000000
0*
0,
0S
0`
0d"
0o"
#55000000
b0000000000000001 %
1*
1,
b0000000000000001 0
b0000000000000001 7
1S
1`
01"
1d"
1o"
0@#
#56000000
0*
0,
0S
0`
0d"
0o"
#57000000
b00000111 #
b1000011000000011 $
1*
1,
b00000111 .
b1000011000000011 /
b1000011000000011 =
b00000111 @
1S
1`
11"
b00000111 c"
1d"
b00000111 m"
1o"
1@#
#58000000
0*
0,
0S
0`
0d"
0o"
#59000000
1*
1,
1S
1`
01"
1d"
1o"
b1001010001000010 $#
b1001010001000010 %#
b00000111 :#
0@#
#60000000
0*
0,
0S
0`
0d"
0o"
#61000000
1*
1,
b1001010001000010 I
1S
1`
11"
1d"
b1001010001000010 e"
b1001010001000010 f"
1o"
b1001010001000010 {"
b1001010001000010 ##
1@#
#62000000
0*
0,
0S
0`
0d"
0o"
#63000000
b0000000000000001 (
1*
1,
b0000000000000001 3
b0000000000000001 :
1S
1`
01"
1d"
1o"
0@#
#64000000
0*
0,
0S
0`
0d"
0o"
#65000000
b00001000 #
b1001010001000010 $
1*
1,
b00001000 .
b1001010001000010 /
b1001010001000010 =
b00001000 @
1S
1`
11"
b00001000 c"
1d"
b00001000 m"
1o"
1@#
#66000000
0*
0,
0S
0`
0d"
0o"
#67000000
1*
1,
b0000000000001010 B
b0000000000001001 D
b001 E
b0000000000001010 L
b001 N
b0000000000001001 P
b00000000000001001 Q
1S
1`
01"
1d"
1o"
b0011000000001010 $#
b0011000000001010 %#
b00001000 :#
0@#
#68000000
0*
0,
0S
0`
0d"
0o"
#69000000
1*
1,
b0011000000001010 I
1S
1`
11"
1d"
b0011000000001010 e"
b0011000000001010 f"
1o"
b0011000000001010 {"
b0011000000001010 ##
1@#
#70000000
0*
0,
0S
0`
0d"
0o"
#71000000
b0000000000001001 '
1*
1,
b0000000000001001 2
b0000000000001001 9
1S
1`
01"
1d"
1o"
0@#
#72000000
0*
0,
0S
0`
0d"
0o"
#73000000
b00001001 #
b0011000000001010 $
1*
1,
b00001001 .
b0011000000001010 /
b0011000000001010 =
b00001001 @
1S
1`
11"
b00001001 c"
1d"
b00001001 m"
1o"
1@#
#74000000
0*
0,
0S
0`
0d"
0o"
#75000000
1*
1,
b0000000000001011 D
b011 E
b011 N
b0000000000001011 P
b00000000000001011 Q
1S
1`
01"
1d"
1o"
b0011010000000101 $#
b0011010000000101 %#
b00001001 :#
0@#
#76000000
0*
0,
0S
0`
0d"
0o"
#77000000
1*
1,
b0011010000000101 I
1S
1`
11"
1d"
b0011010000000101 e"
b0011010000000101 f"
1o"
b0011010000000101 {"
b0011010000000101 ##
1@#
#78000000
0*
0,
0S
0`
0d"
0o"
#79000000
1*
1,
1S
1`
01"
1d"
1o"
0@#
#80000000
0*
0,
0S
0`
0d"
0o"
#81000000
b00001010 #
b0011010000000101 $
1*
1,
b00001010 .
b0011010000000101 /
b0011010000000101 =
b00001010 @
1S
1`
11"
b00001010 c"
1d"
b00001010 m"
1o"
1@#
#82000000
0*
0,
0S
0`
0d"
0o"
#83000000
b00000101 #
1*
1,
b00000101 .
b0000000000000010 <
b0000000000001010 >
b00000101 @
b00000001 A
b00000001 R
1S
b0000000000001010 T
b0000000000001010 \
b00000001 ^
1`
01"
b00000101 c"
1d"
b00000101 m"
1o"
b0011100000000000 $#
b0011100000000000 %#
b00001010 :#
0@#
#84000000
0*
0,
0S
0`
0d"
0o"
#85000000
1*
1,
1H
b0011100000000000 I
1S
1U
1X
1`
b0000000000001010 o
b0000000000000010 r
b0000000000000010 s
b00000001 +"
11"
1d"
b0011100000000000 e"
b0011100000000000 f"
1o"
b0011100000000000 {"
b0011100000000000 ##
b1000000001000000 $#
b1000000001000000 %#
b00000101 :#
1@#
#86000000
0*
0,
0S
0`
0d"
0o"
#87000000
1*
1,
b0000000000000010 G
0H
b1000000001000000 I
1S
0U
b0000000000000010 V
b0000000000000010 W
0X
1`
b0000000000000010 l
b0000000000000010 q
b0000000000001010 r
b0000000000001010 s
b0000000000001010 }
b0000000000000010 !"
1-"
01"
17"
1d"
b1000000001000000 e"
b1000000001000000 f"
1o"
b1000000001000000 {"
b1000000001000000 ##
0@#
#88000000
0*
0,
0S
0`
0d"
0o"
#89000000
b00000110 #
b1000000001000000 $
1*
1,
b00000110 .
b1000000001000000 /
b1000000001000000 =
b00000110 @
b0000000000001010 G
1S
b0000000000001010 V
b0000000000001010 W
1`
b0000000000001010 l
b0000000000001010 q
b0000000000001010 !"
0-"
11"
07"
b00000110 c"
1d"
b00000110 m"
1o"
1@#
#90000000
0*
0,
0S
0`
0d"
0o"
#91000000
1*
1,
b0000000000000001 B
b0000000000000010 D
b000 E
b0000000000000001 L
b000 N
b0000000000000010 P
b00000000000000010 Q
1S
1`
01"
1d"
1o"
b1000011000000011 $#
b1000011000000011 %#
b00000110 :#
0@#
#92000000
0*
0,
0S
0`
0d"
0o"
#93000000
1*
1,
b1000011000000011 I
1S
1`
11"
1d"
b1000011000000011 e"
b1000011000000011 f"
1o"
b1000011000000011 {"
b1000011000000011 ##
1@#
#94000000
0*
0,
0S
0`
0d"
0o"
#95000000
b0000000000000010 %
1*
1,
b0000000000000010 0
b0000000000000010 7
1S
1`
01"
1d"
1o"
0@#
#96000000
0*
0,
0S
0`
0d"
0o"
#97000000
b00000111 #
b1000011000000011 $
1*
1,
b00000111 .
b1000011000000011 /
b1000011000000011 =
b00000111 @
1S
1`
11"
b00000111 c"
1d"
b00000111 m"
1o"
1@#
#98000000
0*
0,
0S
0`
0d"
0o"
#99000000
1*
1,
b0000000000000010 C
b0000000000000011 D
b0000000000000010 M
b0000000000000011 P
b00000000000000011 Q
1S
1`
01"
1d"
1o"
b1001010001000010 $#
b1001010001000010 %#
b00000111 :#
0@#
#100000000
0*
0,
0S
0`
0d"
0o"
#101000000
1*
1,
b1001010001000010 I
1S
1`
11"
1d"
b1001010001000010 e"
b1001010001000010 f"
1o"
b1001010001000010 {"
b1001010001000010 ##
1@#
#102000000
0*
0,
0S
0`
0d"
0o"
#103000000
b0000000000000011 (
1*
1,
b0000000000000011 3
b0000000000000011 :
1S
1`
01"
1d"
1o"
0@#
#104000000
0*
0,
0S
0`
0d"
0o"
#105000000
b00001000 #
b1001010001000010 $
1*
1,
b00001000 .
b1001010001000010 /
b1001010001000010 =
b00001000 @
1S
1`
11"
b00001000 c"
1d"
b00001000 m"
1o"
1@#
#106000000
0*
0,
0S
0`
0d"
0o"
#107000000
1*
1,
b0000000000001001 B
b0000000000000001 C
b0000000000001000 D
b001 E
b0000000000001001 L
b0000000000000001 M
b001 N
b0000000000001000 P
b00000000000001000 Q
1S
1`
01"
1d"
1o"
b0011000000001010 $#
b0011000000001010 %#
b00001000 :#
0@#
#108000000
0*
0,
0S
0`
0d"
0o"
